{
  "iisSettings": {
    "windowsAuthentication": false,
    "anonymousAuthentication": true,
    "iis": {
      "applicationUrl": "http://localhost/IntegrationService",
      "sslPort": 0
    },
    "iisExpress": {
      "applicationUrl": "http://localhost:50151",
      "sslPort": 44300
    }
  },
  "$schema": "http://json.schemastore.org/launchsettings.json",
  "profiles": {
    "IIS Express": {
      "commandName": "IIS",
      "launchBrowser": true,
      "environmentVariables": {
        "ASPNETCORE_ENVIRONMENT": "Development"
      }
    },
    "Docker": {
      "commandName": "Docker",
      "launchBrowser": true,
      "launchUrl": "http://localhost/docker",
      "publishAllPorts": true,
      "useSSL": true
    },
    "TestCredytyIntegrationService": {
      "commandName": "IIS",
      "launchBrowser": true,
      "environmentVariables": {
        "ASPNETCORE_ENVIRONMENT": "Development"
      },
      "ancmHostingModel": "InProcess"
    }
  }
}